{
    "/js/app.js": "/js/app.js?id=c32d8d5f8ed74e2b67fe",
    "/css/app.css": "/css/app.css?id=c653b110168d44d50ce1",
    "/css/admin.css": "/css/admin.css?id=85932ab138f8226cf3d5",
    "/css/site.css": "/css/site.css?id=2d958edf7c086e839db0",
    "/js/admin.js": "/js/admin.js?id=eb2560d2a1febdfe8e61"
}